{
	"_id": "crsbk-0001",
	"userId": "ABC123",
	"courseID": "course100",
	"isPaid": true,
	"paymentMethod": "cash",
	"dateTimeEnrolled": "2023-02-27-1100AM"
}
{
	"_id": "crsbk-0002",
	"userId": "ABC123",
	"courseID": "course123",
	"isPaid": true,
	"paymentMethod": "cash",
	"dateTimeEnrolled": "2023-02-27-1100AM"
}

{
	"_id": "crsbk-0003",
	"userId": "DEF456",
	"courseID": "course123",
	"isPaid": true,
	"paymentMethod": "cash",
	"dateTimeEnrolled": "2023-02-27-1159AM"
}